{
  "name": "jsonc",
  "rules": {
    "document": {
      "type": "SYMBOL",
      "name": "_value"
    },
    "_value": {
      "type": "CHOICE",
      "members": [
        {
          "type": "SYMBOL",
          "name": "object"
        },
        {
          "type": "SYMBOL",
          "name": "array"
        },
        {
          "type": "SYMBOL",
          "name": "number"
        },
        {
          "type": "SYMBOL",
          "name": "string"
        },
        {
          "type": "SYMBOL",
          "name": "true"
        },
        {
          "type": "SYMBOL",
          "name": "false"
        },
        {
          "type": "SYMBOL",
          "name": "null"
        },
        {
          "type": "SYMBOL",
          "name": "comment"
        }
      ]
    },
    "object": {
      "type": "SEQ",
      "members": [
        {
          "type": "STRING",
          "value": "{"
        },
        {
          "type": "CHOICE",
          "members": [
            {
              "type": "SEQ",
              "members": [
                {
                  "type": "SYMBOL",
                  "name": "pair"
                },
                {
                  "type": "REPEAT",
                  "content": {
                    "type": "SEQ",
                    "members": [
                      {
                        "type": "STRING",
                        "value": ","
                      },
                      {
                        "type": "SYMBOL",
                        "name": "pair"
                      }
                    ]
                  }
                }
              ]
            },
            {
              "type": "BLANK"
            }
          ]
        },
        {
          "type": "STRING",
          "value": "}"
        }
      ]
    },
    "pair": {
      "type": "SEQ",
      "members": [
        {
          "type": "FIELD",
          "name": "key",
          "content": {
            "type": "CHOICE",
            "members": [
              {
                "type": "SYMBOL",
                "name": "string"
              },
              {
                "type": "SYMBOL",
                "name": "number"
              }
            ]
          }
        },
        {
          "type": "STRING",
          "value": ":"
        },
        {
          "type": "FIELD",
          "name": "value",
          "content": {
            "type": "SYMBOL",
            "name": "_value"
          }
        }
      ]
    },
    "array": {
      "type": "SEQ",
      "members": [
        {
          "type": "STRING",
          "value": "["
        },
        {
          "type": "CHOICE",
          "members": [
            {
              "type": "SEQ",
              "members": [
                {
                  "type": "SYMBOL",
                  "name": "_value"
                },
                {
                  "type": "REPEAT",
                  "content": {
                    "type": "SEQ",
                    "members": [
                      {
                        "type": "STRING",
                        "value": ","
                      },
                      {
                        "type": "SYMBOL",
                        "name": "_value"
                      }
                    ]
                  }
                }
              ]
            },
            {
              "type": "BLANK"
            }
          ]
        },
        {
          "type": "STRING",
          "value": "]"
        }
      ]
    },
    "string": {
      "type": "CHOICE",
      "members": [
        {
          "type": "SEQ",
          "members": [
            {
              "type": "STRING",
              "value": "\""
            },
            {
              "type": "STRING",
              "value": "\""
            }
          ]
        },
        {
          "type": "SEQ",
          "members": [
            {
              "type": "STRING",
              "value": "\""
            },
            {
              "type": "SYMBOL",
              "name": "string_content"
            },
            {
              "type": "STRING",
              "value": "\""
            }
          ]
        }
      ]
    },
    "string_content": {
      "type": "REPEAT1",
      "content": {
        "type": "CHOICE",
        "members": [
          {
            "type": "IMMEDIATE_TOKEN",
            "content": {
              "type": "PATTERN",
              "value": "[^\\\\\"\\n]+"
            }
          },
          {
            "type": "SYMBOL",
            "name": "escape_sequence"
          }
        ]
      }
    },
    "escape_sequence": {
      "type": "IMMEDIATE_TOKEN",
      "content": {
        "type": "SEQ",
        "members": [
          {
            "type": "STRING",
            "value": "\\"
          },
          {
            "type": "PATTERN",
            "value": "(\\\"|\\\\|\\/|b|n|r|t|u)"
          }
        ]
      }
    },
    "number": {
      "type": "TOKEN",
      "content": {
        "type": "CHOICE",
        "members": [
          {
            "type": "SEQ",
            "members": [
              {
                "type": "CHOICE",
                "members": [
                  {
                    "type": "STRING",
                    "value": "0x"
                  },
                  {
                    "type": "STRING",
                    "value": "0X"
                  }
                ]
              },
              {
                "type": "PATTERN",
                "value": "[\\da-fA-F]+"
              }
            ]
          },
          {
            "type": "CHOICE",
            "members": [
              {
                "type": "SEQ",
                "members": [
                  {
                    "type": "SEQ",
                    "members": [
                      {
                        "type": "CHOICE",
                        "members": [
                          {
                            "type": "CHOICE",
                            "members": [
                              {
                                "type": "STRING",
                                "value": "-"
                              },
                              {
                                "type": "STRING",
                                "value": "+"
                              }
                            ]
                          },
                          {
                            "type": "BLANK"
                          }
                        ]
                      },
                      {
                        "type": "CHOICE",
                        "members": [
                          {
                            "type": "STRING",
                            "value": "0"
                          },
                          {
                            "type": "SEQ",
                            "members": [
                              {
                                "type": "PATTERN",
                                "value": "[1-9]"
                              },
                              {
                                "type": "CHOICE",
                                "members": [
                                  {
                                    "type": "PATTERN",
                                    "value": "\\d+"
                                  },
                                  {
                                    "type": "BLANK"
                                  }
                                ]
                              }
                            ]
                          }
                        ]
                      }
                    ]
                  },
                  {
                    "type": "STRING",
                    "value": "."
                  },
                  {
                    "type": "CHOICE",
                    "members": [
                      {
                        "type": "PATTERN",
                        "value": "\\d+"
                      },
                      {
                        "type": "BLANK"
                      }
                    ]
                  },
                  {
                    "type": "CHOICE",
                    "members": [
                      {
                        "type": "SEQ",
                        "members": [
                          {
                            "type": "CHOICE",
                            "members": [
                              {
                                "type": "STRING",
                                "value": "e"
                              },
                              {
                                "type": "STRING",
                                "value": "E"
                              }
                            ]
                          },
                          {
                            "type": "SEQ",
                            "members": [
                              {
                                "type": "CHOICE",
                                "members": [
                                  {
                                    "type": "CHOICE",
                                    "members": [
                                      {
                                        "type": "STRING",
                                        "value": "-"
                                      },
                                      {
                                        "type": "STRING",
                                        "value": "+"
                                      }
                                    ]
                                  },
                                  {
                                    "type": "BLANK"
                                  }
                                ]
                              },
                              {
                                "type": "PATTERN",
                                "value": "\\d+"
                              }
                            ]
                          }
                        ]
                      },
                      {
                        "type": "BLANK"
                      }
                    ]
                  }
                ]
              },
              {
                "type": "SEQ",
                "members": [
                  {
                    "type": "STRING",
                    "value": "."
                  },
                  {
                    "type": "PATTERN",
                    "value": "\\d+"
                  },
                  {
                    "type": "CHOICE",
                    "members": [
                      {
                        "type": "SEQ",
                        "members": [
                          {
                            "type": "CHOICE",
                            "members": [
                              {
                                "type": "STRING",
                                "value": "e"
                              },
                              {
                                "type": "STRING",
                                "value": "E"
                              }
                            ]
                          },
                          {
                            "type": "SEQ",
                            "members": [
                              {
                                "type": "CHOICE",
                                "members": [
                                  {
                                    "type": "CHOICE",
                                    "members": [
                                      {
                                        "type": "STRING",
                                        "value": "-"
                                      },
                                      {
                                        "type": "STRING",
                                        "value": "+"
                                      }
                                    ]
                                  },
                                  {
                                    "type": "BLANK"
                                  }
                                ]
                              },
                              {
                                "type": "PATTERN",
                                "value": "\\d+"
                              }
                            ]
                          }
                        ]
                      },
                      {
                        "type": "BLANK"
                      }
                    ]
                  }
                ]
              },
              {
                "type": "SEQ",
                "members": [
                  {
                    "type": "SEQ",
                    "members": [
                      {
                        "type": "CHOICE",
                        "members": [
                          {
                            "type": "CHOICE",
                            "members": [
                              {
                                "type": "STRING",
                                "value": "-"
                              },
                              {
                                "type": "STRING",
                                "value": "+"
                              }
                            ]
                          },
                          {
                            "type": "BLANK"
                          }
                        ]
                      },
                      {
                        "type": "CHOICE",
                        "members": [
                          {
                            "type": "STRING",
                            "value": "0"
                          },
                          {
                            "type": "SEQ",
                            "members": [
                              {
                                "type": "PATTERN",
                                "value": "[1-9]"
                              },
                              {
                                "type": "CHOICE",
                                "members": [
                                  {
                                    "type": "PATTERN",
                                    "value": "\\d+"
                                  },
                                  {
                                    "type": "BLANK"
                                  }
                                ]
                              }
                            ]
                          }
                        ]
                      }
                    ]
                  },
                  {
                    "type": "CHOICE",
                    "members": [
                      {
                        "type": "SEQ",
                        "members": [
                          {
                            "type": "CHOICE",
                            "members": [
                              {
                                "type": "STRING",
                                "value": "e"
                              },
                              {
                                "type": "STRING",
                                "value": "E"
                              }
                            ]
                          },
                          {
                            "type": "SEQ",
                            "members": [
                              {
                                "type": "CHOICE",
                                "members": [
                                  {
                                    "type": "CHOICE",
                                    "members": [
                                      {
                                        "type": "STRING",
                                        "value": "-"
                                      },
                                      {
                                        "type": "STRING",
                                        "value": "+"
                                      }
                                    ]
                                  },
                                  {
                                    "type": "BLANK"
                                  }
                                ]
                              },
                              {
                                "type": "PATTERN",
                                "value": "\\d+"
                              }
                            ]
                          }
                        ]
                      },
                      {
                        "type": "BLANK"
                      }
                    ]
                  }
                ]
              }
            ]
          },
          {
            "type": "SEQ",
            "members": [
              {
                "type": "CHOICE",
                "members": [
                  {
                    "type": "STRING",
                    "value": "0b"
                  },
                  {
                    "type": "STRING",
                    "value": "0B"
                  }
                ]
              },
              {
                "type": "PATTERN",
                "value": "[0-1]+"
              }
            ]
          },
          {
            "type": "SEQ",
            "members": [
              {
                "type": "CHOICE",
                "members": [
                  {
                    "type": "STRING",
                    "value": "0o"
                  },
                  {
                    "type": "STRING",
                    "value": "0O"
                  }
                ]
              },
              {
                "type": "PATTERN",
                "value": "[0-7]+"
              }
            ]
          }
        ]
      }
    },
    "true": {
      "type": "STRING",
      "value": "true"
    },
    "false": {
      "type": "STRING",
      "value": "false"
    },
    "null": {
      "type": "STRING",
      "value": "null"
    },
    "comment": {
      "type": "TOKEN",
      "content": {
        "type": "CHOICE",
        "members": [
          {
            "type": "SEQ",
            "members": [
              {
                "type": "STRING",
                "value": "//"
              },
              {
                "type": "PATTERN",
                "value": ".*"
              }
            ]
          },
          {
            "type": "SEQ",
            "members": [
              {
                "type": "STRING",
                "value": "/*"
              },
              {
                "type": "PATTERN",
                "value": "[^*]*\\*+([^/*][^*]*\\*+)*"
              },
              {
                "type": "STRING",
                "value": "/"
              }
            ]
          }
        ]
      }
    }
  },
  "extras": [
    {
      "type": "PATTERN",
      "value": "\\s"
    },
    {
      "type": "SYMBOL",
      "name": "comment"
    }
  ],
  "conflicts": [],
  "externals": [],
  "inline": [],
  "supertypes": [
    "_value"
  ]
}

